%YAML 1.1
%TAG !u! tag:unity3d.com,2011:
--- !u!74 &7400000
AnimationClip:
  m_ObjectHideFlags: 0
  m_CorrespondingSourceObject: {fileID: 0}
  m_PrefabInstance: {fileID: 0}
  m_PrefabAsset: {fileID: 0}
  m_Name: TheBoyJump
  serializedVersion: 6
  m_Legacy: 0
  m_Compressed: 0
  m_UseHighQualityCurve: 1
  m_RotationCurves: []
  m_CompressedRotationCurves: []
  m_EulerCurves: []
  m_PositionCurves: []
  m_ScaleCurves: []
  m_FloatCurves: []
  m_PPtrCurves:
  - curve:
    - time: 0
      value: {fileID: 21300000, guid: 5825ff83e1506814883b70eb1b97ead6, type: 3}
    - time: 0.083333336
      value: {fileID: 21300000, guid: 763d869af814a2b4083bd8b1c89278a2, type: 3}
    - time: 0.16666667
      value: {fileID: 21300000, guid: 3a8b50400ec438a4bb48950fd640ff77, type: 3}
    - time: 0.25
      value: {fileID: 21300000, guid: b6e2fe2696e4a7f4e91802dd5c9c6fa8, type: 3}
    - time: 0.33333334
      value: {fileID: 21300000, guid: a79532b32ef292549a79671fec04070f, type: 3}
    - time: 0.41666666
      value: {fileID: 21300000, guid: 03164be835bf59348ad31d4ed13645a1, type: 3}
    - time: 0.5
      value: {fileID: 21300000, guid: 02123cd8defe7c24a824cc41910f05c1, type: 3}
    - time: 0.5833333
      value: {fileID: 21300000, guid: 1c72a8dd45db0b54a95fd67e97d3f4fb, type: 3}
    - time: 0.6666667
      value: {fileID: 21300000, guid: 55894db5ea88980479506e64960b61e4, type: 3}
    - time: 0.75
      value: {fileID: 21300000, guid: 6a351986fefd24d45ba0b7c7bbc2b4e2, type: 3}
    - time: 0.8333333
      value: {fileID: 21300000, guid: 32f0997679289d744810c50b340d2df8, type: 3}
    - time: 0.9166667
      value: {fileID: 21300000, guid: 7004fb5f3236b0f4585f8c2657ae33a5, type: 3}
    - time: 1
      value: {fileID: 21300000, guid: 674a46e3908de6149b9cfa60e1e8fe2d, type: 3}
    - time: 1.0833334
      value: {fileID: 21300000, guid: e064d70f787c0c54aad6e7961cb85b47, type: 3}
    - time: 1.1666666
      value: {fileID: 21300000, guid: 1b2b312dee19d114fbd010b706896c81, type: 3}
    attribute: m_Sprite
    path: 
    classID: 212
    script: {fileID: 0}
  m_SampleRate: 12
  m_WrapMode: 0
  m_Bounds:
    m_Center: {x: 0, y: 0, z: 0}
    m_Extent: {x: 0, y: 0, z: 0}
  m_ClipBindingConstant:
    genericBindings:
    - serializedVersion: 2
      path: 0
      attribute: 0
      script: {fileID: 0}
      typeID: 212
      customType: 23
      isPPtrCurve: 1
    pptrCurveMapping:
    - {fileID: 21300000, guid: 5825ff83e1506814883b70eb1b97ead6, type: 3}
    - {fileID: 21300000, guid: 763d869af814a2b4083bd8b1c89278a2, type: 3}
    - {fileID: 21300000, guid: 3a8b50400ec438a4bb48950fd640ff77, type: 3}
    - {fileID: 21300000, guid: b6e2fe2696e4a7f4e91802dd5c9c6fa8, type: 3}
    - {fileID: 21300000, guid: a79532b32ef292549a79671fec04070f, type: 3}
    - {fileID: 21300000, guid: 03164be835bf59348ad31d4ed13645a1, type: 3}
    - {fileID: 21300000, guid: 02123cd8defe7c24a824cc41910f05c1, type: 3}
    - {fileID: 21300000, guid: 1c72a8dd45db0b54a95fd67e97d3f4fb, type: 3}
    - {fileID: 21300000, guid: 55894db5ea88980479506e64960b61e4, type: 3}
    - {fileID: 21300000, guid: 6a351986fefd24d45ba0b7c7bbc2b4e2, type: 3}
    - {fileID: 21300000, guid: 32f0997679289d744810c50b340d2df8, type: 3}
    - {fileID: 21300000, guid: 7004fb5f3236b0f4585f8c2657ae33a5, type: 3}
    - {fileID: 21300000, guid: 674a46e3908de6149b9cfa60e1e8fe2d, type: 3}
    - {fileID: 21300000, guid: e064d70f787c0c54aad6e7961cb85b47, type: 3}
    - {fileID: 21300000, guid: 1b2b312dee19d114fbd010b706896c81, type: 3}
  m_AnimationClipSettings:
    serializedVersion: 2
    m_AdditiveReferencePoseClip: {fileID: 0}
    m_AdditiveReferencePoseTime: 0
    m_StartTime: 0
    m_StopTime: 1.25
    m_OrientationOffsetY: 0
    m_Level: 0
    m_CycleOffset: 0
    m_HasAdditiveReferencePose: 0
    m_LoopTime: 1
    m_LoopBlend: 0
    m_LoopBlendOrientation: 0
    m_LoopBlendPositionY: 0
    m_LoopBlendPositionXZ: 0
    m_KeepOriginalOrientation: 0
    m_KeepOriginalPositionY: 1
    m_KeepOriginalPositionXZ: 0
    m_HeightFromFeet: 0
    m_Mirror: 0
  m_EditorCurves: []
  m_EulerEditorCurves: []
  m_HasGenericRootTransform: 0
  m_HasMotionFloatCurves: 0
  m_Events: []
